…
You have a balanced panel. Setting allow_unbalanced_panel = FALSE.
   [BC_Gap/High] ATT = 0.0018 (SE = 0.0136) | Pre-trend p = 0.8107
   -> Birth-cohort exposed / Low Dose...
   [BC_Exposed/Low] 167 treated | 112 not-yet-treated | 3896 obs
You have an unbalanced panel. Proceeding as such.
   [BC_Exposed/Low] ATT = 0.0107 (SE = 0.0101) | Pre-trend p = 0.9684
   -> Birth-cohort control / Low Dose...
   [BC_Control/Low] 167 treated | 112 not-yet-treated | 3906 obs
You have a balanced panel. Setting allow_unbalanced_panel = FALSE.
   [BC_Control/Low] ATT = -0.0009 (SE = 0.0092) | Pre-trend p = 0.9035
   Birth-cohort gap figure saved.
   Birth-cohort decomposition figure saved.
   Building ATT summary table...
   Table 4 (ATT summary) saved.
# A tibble: 45 × 9
   Model              ATT     SE  CI_low CI_high Pretrend_p N_obs N_treated N_notyet
   <chr>            <dbl>  <dbl>   <dbl>   <dbl>      <dbl> <int>     <int>    <int>
 1 Low/Wages       0.0128 0.0128 -0.0122  0.0379      0.359  3906       167      112
 2 High/Wages     -0.007  0.0074 -0.0216  0.0076      0.916  3528       140      112
 3 Marginal/Wages  0.0136 0.0078 -0.0017  0.0289      0.362  3752       156      112
 4 Low/Emp         0.0182 0.0332 -0.0469  0.0833      0.120  3906       167      112
 5 High/Emp        0.0065 0.0396 -0.0711  0.084       0.809  3528       140      112
 6 Marginal/Emp   -0.0386 0.0335 -0.104   0.0271      0.597  3752       156      112
 7 Male/Low        0.0167 0.0169 -0.0163  0.0498      0.418  3906       167      112
 8 Female/Low     -0.0003 0.0007 -0.0017  0.001       0.953  3905       167      112
 9 Male/High      -0.0083 0.0092 -0.0264  0.0098      0.918  3528       140      112
10 Female/High    -0.0041 0.0073 -0.0184  0.0101      0.736  3527       140      112
# ℹ 35 more rows
# ℹ Use `print(n = ...)` to see more rows
…
